fetch_stage_tb.vcd
$date
	Tue Apr 22 23:42:57 2025
$end
$version
	ModelSim Version 2020.4
$end
$timescale
	1ns
$end

$scope module Fetch_Stage_tb $end
$var reg 1 ! clk $end
$var reg 1 " rst $end
$var reg 1 # PCSrcE $end
$var reg 32 $ PCTargetE [31:0] $end
$var reg 1 % PCWrite $end
$var reg 1 & IF_ID_Write $end
$var wire 1 ' InstrD [31] $end
$var wire 1 ( InstrD [30] $end
$var wire 1 ) InstrD [29] $end
$var wire 1 * InstrD [28] $end
$var wire 1 + InstrD [27] $end
$var wire 1 , InstrD [26] $end
$var wire 1 - InstrD [25] $end
$var wire 1 . InstrD [24] $end
$var wire 1 / InstrD [23] $end
$var wire 1 0 InstrD [22] $end
$var wire 1 1 InstrD [21] $end
$var wire 1 2 InstrD [20] $end
$var wire 1 3 InstrD [19] $end
$var wire 1 4 InstrD [18] $end
$var wire 1 5 InstrD [17] $end
$var wire 1 6 InstrD [16] $end
$var wire 1 7 InstrD [15] $end
$var wire 1 8 InstrD [14] $end
$var wire 1 9 InstrD [13] $end
$var wire 1 : InstrD [12] $end
$var wire 1 ; InstrD [11] $end
$var wire 1 < InstrD [10] $end
$var wire 1 = InstrD [9] $end
$var wire 1 > InstrD [8] $end
$var wire 1 ? InstrD [7] $end
$var wire 1 @ InstrD [6] $end
$var wire 1 A InstrD [5] $end
$var wire 1 B InstrD [4] $end
$var wire 1 C InstrD [3] $end
$var wire 1 D InstrD [2] $end
$var wire 1 E InstrD [1] $end
$var wire 1 F InstrD [0] $end
$var wire 1 G PCD [31] $end
$var wire 1 H PCD [30] $end
$var wire 1 I PCD [29] $end
$var wire 1 J PCD [28] $end
$var wire 1 K PCD [27] $end
$var wire 1 L PCD [26] $end
$var wire 1 M PCD [25] $end
$var wire 1 N PCD [24] $end
$var wire 1 O PCD [23] $end
$var wire 1 P PCD [22] $end
$var wire 1 Q PCD [21] $end
$var wire 1 R PCD [20] $end
$var wire 1 S PCD [19] $end
$var wire 1 T PCD [18] $end
$var wire 1 U PCD [17] $end
$var wire 1 V PCD [16] $end
$var wire 1 W PCD [15] $end
$var wire 1 X PCD [14] $end
$var wire 1 Y PCD [13] $end
$var wire 1 Z PCD [12] $end
$var wire 1 [ PCD [11] $end
$var wire 1 \ PCD [10] $end
$var wire 1 ] PCD [9] $end
$var wire 1 ^ PCD [8] $end
$var wire 1 _ PCD [7] $end
$var wire 1 ` PCD [6] $end
$var wire 1 a PCD [5] $end
$var wire 1 b PCD [4] $end
$var wire 1 c PCD [3] $end
$var wire 1 d PCD [2] $end
$var wire 1 e PCD [1] $end
$var wire 1 f PCD [0] $end
$var wire 1 g PCPlus4D [31] $end
$var wire 1 h PCPlus4D [30] $end
$var wire 1 i PCPlus4D [29] $end
$var wire 1 j PCPlus4D [28] $end
$var wire 1 k PCPlus4D [27] $end
$var wire 1 l PCPlus4D [26] $end
$var wire 1 m PCPlus4D [25] $end
$var wire 1 n PCPlus4D [24] $end
$var wire 1 o PCPlus4D [23] $end
$var wire 1 p PCPlus4D [22] $end
$var wire 1 q PCPlus4D [21] $end
$var wire 1 r PCPlus4D [20] $end
$var wire 1 s PCPlus4D [19] $end
$var wire 1 t PCPlus4D [18] $end
$var wire 1 u PCPlus4D [17] $end
$var wire 1 v PCPlus4D [16] $end
$var wire 1 w PCPlus4D [15] $end
$var wire 1 x PCPlus4D [14] $end
$var wire 1 y PCPlus4D [13] $end
$var wire 1 z PCPlus4D [12] $end
$var wire 1 { PCPlus4D [11] $end
$var wire 1 | PCPlus4D [10] $end
$var wire 1 } PCPlus4D [9] $end
$var wire 1 ~ PCPlus4D [8] $end
$var wire 1 !! PCPlus4D [7] $end
$var wire 1 "! PCPlus4D [6] $end
$var wire 1 #! PCPlus4D [5] $end
$var wire 1 $! PCPlus4D [4] $end
$var wire 1 %! PCPlus4D [3] $end
$var wire 1 &! PCPlus4D [2] $end
$var wire 1 '! PCPlus4D [1] $end
$var wire 1 (! PCPlus4D [0] $end

$scope module DUT $end
$var wire 1 )! clk $end
$var wire 1 *! rst $end
$var wire 1 +! PCSrcE $end
$var wire 1 ,! PCTargetE [31] $end
$var wire 1 -! PCTargetE [30] $end
$var wire 1 .! PCTargetE [29] $end
$var wire 1 /! PCTargetE [28] $end
$var wire 1 0! PCTargetE [27] $end
$var wire 1 1! PCTargetE [26] $end
$var wire 1 2! PCTargetE [25] $end
$var wire 1 3! PCTargetE [24] $end
$var wire 1 4! PCTargetE [23] $end
$var wire 1 5! PCTargetE [22] $end
$var wire 1 6! PCTargetE [21] $end
$var wire 1 7! PCTargetE [20] $end
$var wire 1 8! PCTargetE [19] $end
$var wire 1 9! PCTargetE [18] $end
$var wire 1 :! PCTargetE [17] $end
$var wire 1 ;! PCTargetE [16] $end
$var wire 1 <! PCTargetE [15] $end
$var wire 1 =! PCTargetE [14] $end
$var wire 1 >! PCTargetE [13] $end
$var wire 1 ?! PCTargetE [12] $end
$var wire 1 @! PCTargetE [11] $end
$var wire 1 A! PCTargetE [10] $end
$var wire 1 B! PCTargetE [9] $end
$var wire 1 C! PCTargetE [8] $end
$var wire 1 D! PCTargetE [7] $end
$var wire 1 E! PCTargetE [6] $end
$var wire 1 F! PCTargetE [5] $end
$var wire 1 G! PCTargetE [4] $end
$var wire 1 H! PCTargetE [3] $end
$var wire 1 I! PCTargetE [2] $end
$var wire 1 J! PCTargetE [1] $end
$var wire 1 K! PCTargetE [0] $end
$var wire 1 L! PCWrite $end
$var wire 1 M! IF_ID_Write $end
$var wire 1 ' InstrD [31] $end
$var wire 1 ( InstrD [30] $end
$var wire 1 ) InstrD [29] $end
$var wire 1 * InstrD [28] $end
$var wire 1 + InstrD [27] $end
$var wire 1 , InstrD [26] $end
$var wire 1 - InstrD [25] $end
$var wire 1 . InstrD [24] $end
$var wire 1 / InstrD [23] $end
$var wire 1 0 InstrD [22] $end
$var wire 1 1 InstrD [21] $end
$var wire 1 2 InstrD [20] $end
$var wire 1 3 InstrD [19] $end
$var wire 1 4 InstrD [18] $end
$var wire 1 5 InstrD [17] $end
$var wire 1 6 InstrD [16] $end
$var wire 1 7 InstrD [15] $end
$var wire 1 8 InstrD [14] $end
$var wire 1 9 InstrD [13] $end
$var wire 1 : InstrD [12] $end
$var wire 1 ; InstrD [11] $end
$var wire 1 < InstrD [10] $end
$var wire 1 = InstrD [9] $end
$var wire 1 > InstrD [8] $end
$var wire 1 ? InstrD [7] $end
$var wire 1 @ InstrD [6] $end
$var wire 1 A InstrD [5] $end
$var wire 1 B InstrD [4] $end
$var wire 1 C InstrD [3] $end
$var wire 1 D InstrD [2] $end
$var wire 1 E InstrD [1] $end
$var wire 1 F InstrD [0] $end
$var wire 1 G PCD [31] $end
$var wire 1 H PCD [30] $end
$var wire 1 I PCD [29] $end
$var wire 1 J PCD [28] $end
$var wire 1 K PCD [27] $end
$var wire 1 L PCD [26] $end
$var wire 1 M PCD [25] $end
$var wire 1 N PCD [24] $end
$var wire 1 O PCD [23] $end
$var wire 1 P PCD [22] $end
$var wire 1 Q PCD [21] $end
$var wire 1 R PCD [20] $end
$var wire 1 S PCD [19] $end
$var wire 1 T PCD [18] $end
$var wire 1 U PCD [17] $end
$var wire 1 V PCD [16] $end
$var wire 1 W PCD [15] $end
$var wire 1 X PCD [14] $end
$var wire 1 Y PCD [13] $end
$var wire 1 Z PCD [12] $end
$var wire 1 [ PCD [11] $end
$var wire 1 \ PCD [10] $end
$var wire 1 ] PCD [9] $end
$var wire 1 ^ PCD [8] $end
$var wire 1 _ PCD [7] $end
$var wire 1 ` PCD [6] $end
$var wire 1 a PCD [5] $end
$var wire 1 b PCD [4] $end
$var wire 1 c PCD [3] $end
$var wire 1 d PCD [2] $end
$var wire 1 e PCD [1] $end
$var wire 1 f PCD [0] $end
$var wire 1 g PCPlus4D [31] $end
$var wire 1 h PCPlus4D [30] $end
$var wire 1 i PCPlus4D [29] $end
$var wire 1 j PCPlus4D [28] $end
$var wire 1 k PCPlus4D [27] $end
$var wire 1 l PCPlus4D [26] $end
$var wire 1 m PCPlus4D [25] $end
$var wire 1 n PCPlus4D [24] $end
$var wire 1 o PCPlus4D [23] $end
$var wire 1 p PCPlus4D [22] $end
$var wire 1 q PCPlus4D [21] $end
$var wire 1 r PCPlus4D [20] $end
$var wire 1 s PCPlus4D [19] $end
$var wire 1 t PCPlus4D [18] $end
$var wire 1 u PCPlus4D [17] $end
$var wire 1 v PCPlus4D [16] $end
$var wire 1 w PCPlus4D [15] $end
$var wire 1 x PCPlus4D [14] $end
$var wire 1 y PCPlus4D [13] $end
$var wire 1 z PCPlus4D [12] $end
$var wire 1 { PCPlus4D [11] $end
$var wire 1 | PCPlus4D [10] $end
$var wire 1 } PCPlus4D [9] $end
$var wire 1 ~ PCPlus4D [8] $end
$var wire 1 !! PCPlus4D [7] $end
$var wire 1 "! PCPlus4D [6] $end
$var wire 1 #! PCPlus4D [5] $end
$var wire 1 $! PCPlus4D [4] $end
$var wire 1 %! PCPlus4D [3] $end
$var wire 1 &! PCPlus4D [2] $end
$var wire 1 '! PCPlus4D [1] $end
$var wire 1 (! PCPlus4D [0] $end
$var wire 1 N! PCF [31] $end
$var wire 1 O! PCF [30] $end
$var wire 1 P! PCF [29] $end
$var wire 1 Q! PCF [28] $end
$var wire 1 R! PCF [27] $end
$var wire 1 S! PCF [26] $end
$var wire 1 T! PCF [25] $end
$var wire 1 U! PCF [24] $end
$var wire 1 V! PCF [23] $end
$var wire 1 W! PCF [22] $end
$var wire 1 X! PCF [21] $end
$var wire 1 Y! PCF [20] $end
$var wire 1 Z! PCF [19] $end
$var wire 1 [! PCF [18] $end
$var wire 1 \! PCF [17] $end
$var wire 1 ]! PCF [16] $end
$var wire 1 ^! PCF [15] $end
$var wire 1 _! PCF [14] $end
$var wire 1 `! PCF [13] $end
$var wire 1 a! PCF [12] $end
$var wire 1 b! PCF [11] $end
$var wire 1 c! PCF [10] $end
$var wire 1 d! PCF [9] $end
$var wire 1 e! PCF [8] $end
$var wire 1 f! PCF [7] $end
$var wire 1 g! PCF [6] $end
$var wire 1 h! PCF [5] $end
$var wire 1 i! PCF [4] $end
$var wire 1 j! PCF [3] $end
$var wire 1 k! PCF [2] $end
$var wire 1 l! PCF [1] $end
$var wire 1 m! PCF [0] $end
$var wire 1 n! PC_F [31] $end
$var wire 1 o! PC_F [30] $end
$var wire 1 p! PC_F [29] $end
$var wire 1 q! PC_F [28] $end
$var wire 1 r! PC_F [27] $end
$var wire 1 s! PC_F [26] $end
$var wire 1 t! PC_F [25] $end
$var wire 1 u! PC_F [24] $end
$var wire 1 v! PC_F [23] $end
$var wire 1 w! PC_F [22] $end
$var wire 1 x! PC_F [21] $end
$var wire 1 y! PC_F [20] $end
$var wire 1 z! PC_F [19] $end
$var wire 1 {! PC_F [18] $end
$var wire 1 |! PC_F [17] $end
$var wire 1 }! PC_F [16] $end
$var wire 1 ~! PC_F [15] $end
$var wire 1 !" PC_F [14] $end
$var wire 1 "" PC_F [13] $end
$var wire 1 #" PC_F [12] $end
$var wire 1 $" PC_F [11] $end
$var wire 1 %" PC_F [10] $end
$var wire 1 &" PC_F [9] $end
$var wire 1 '" PC_F [8] $end
$var wire 1 (" PC_F [7] $end
$var wire 1 )" PC_F [6] $end
$var wire 1 *" PC_F [5] $end
$var wire 1 +" PC_F [4] $end
$var wire 1 ," PC_F [3] $end
$var wire 1 -" PC_F [2] $end
$var wire 1 ." PC_F [1] $end
$var wire 1 /" PC_F [0] $end
$var wire 1 0" PCPlus4F [31] $end
$var wire 1 1" PCPlus4F [30] $end
$var wire 1 2" PCPlus4F [29] $end
$var wire 1 3" PCPlus4F [28] $end
$var wire 1 4" PCPlus4F [27] $end
$var wire 1 5" PCPlus4F [26] $end
$var wire 1 6" PCPlus4F [25] $end
$var wire 1 7" PCPlus4F [24] $end
$var wire 1 8" PCPlus4F [23] $end
$var wire 1 9" PCPlus4F [22] $end
$var wire 1 :" PCPlus4F [21] $end
$var wire 1 ;" PCPlus4F [20] $end
$var wire 1 <" PCPlus4F [19] $end
$var wire 1 =" PCPlus4F [18] $end
$var wire 1 >" PCPlus4F [17] $end
$var wire 1 ?" PCPlus4F [16] $end
$var wire 1 @" PCPlus4F [15] $end
$var wire 1 A" PCPlus4F [14] $end
$var wire 1 B" PCPlus4F [13] $end
$var wire 1 C" PCPlus4F [12] $end
$var wire 1 D" PCPlus4F [11] $end
$var wire 1 E" PCPlus4F [10] $end
$var wire 1 F" PCPlus4F [9] $end
$var wire 1 G" PCPlus4F [8] $end
$var wire 1 H" PCPlus4F [7] $end
$var wire 1 I" PCPlus4F [6] $end
$var wire 1 J" PCPlus4F [5] $end
$var wire 1 K" PCPlus4F [4] $end
$var wire 1 L" PCPlus4F [3] $end
$var wire 1 M" PCPlus4F [2] $end
$var wire 1 N" PCPlus4F [1] $end
$var wire 1 O" PCPlus4F [0] $end
$var wire 1 P" InstrF [31] $end
$var wire 1 Q" InstrF [30] $end
$var wire 1 R" InstrF [29] $end
$var wire 1 S" InstrF [28] $end
$var wire 1 T" InstrF [27] $end
$var wire 1 U" InstrF [26] $end
$var wire 1 V" InstrF [25] $end
$var wire 1 W" InstrF [24] $end
$var wire 1 X" InstrF [23] $end
$var wire 1 Y" InstrF [22] $end
$var wire 1 Z" InstrF [21] $end
$var wire 1 [" InstrF [20] $end
$var wire 1 \" InstrF [19] $end
$var wire 1 ]" InstrF [18] $end
$var wire 1 ^" InstrF [17] $end
$var wire 1 _" InstrF [16] $end
$var wire 1 `" InstrF [15] $end
$var wire 1 a" InstrF [14] $end
$var wire 1 b" InstrF [13] $end
$var wire 1 c" InstrF [12] $end
$var wire 1 d" InstrF [11] $end
$var wire 1 e" InstrF [10] $end
$var wire 1 f" InstrF [9] $end
$var wire 1 g" InstrF [8] $end
$var wire 1 h" InstrF [7] $end
$var wire 1 i" InstrF [6] $end
$var wire 1 j" InstrF [5] $end
$var wire 1 k" InstrF [4] $end
$var wire 1 l" InstrF [3] $end
$var wire 1 m" InstrF [2] $end
$var wire 1 n" InstrF [1] $end
$var wire 1 o" InstrF [0] $end
$var reg 32 p" InstrF_reg [31:0] $end
$var reg 32 q" PCF_reg [31:0] $end
$var reg 32 r" PCPlus4F_reg [31:0] $end

$scope module PC_MUX $end
$var wire 1 0" a [31] $end
$var wire 1 1" a [30] $end
$var wire 1 2" a [29] $end
$var wire 1 3" a [28] $end
$var wire 1 4" a [27] $end
$var wire 1 5" a [26] $end
$var wire 1 6" a [25] $end
$var wire 1 7" a [24] $end
$var wire 1 8" a [23] $end
$var wire 1 9" a [22] $end
$var wire 1 :" a [21] $end
$var wire 1 ;" a [20] $end
$var wire 1 <" a [19] $end
$var wire 1 =" a [18] $end
$var wire 1 >" a [17] $end
$var wire 1 ?" a [16] $end
$var wire 1 @" a [15] $end
$var wire 1 A" a [14] $end
$var wire 1 B" a [13] $end
$var wire 1 C" a [12] $end
$var wire 1 D" a [11] $end
$var wire 1 E" a [10] $end
$var wire 1 F" a [9] $end
$var wire 1 G" a [8] $end
$var wire 1 H" a [7] $end
$var wire 1 I" a [6] $end
$var wire 1 J" a [5] $end
$var wire 1 K" a [4] $end
$var wire 1 L" a [3] $end
$var wire 1 M" a [2] $end
$var wire 1 N" a [1] $end
$var wire 1 O" a [0] $end
$var wire 1 ,! b [31] $end
$var wire 1 -! b [30] $end
$var wire 1 .! b [29] $end
$var wire 1 /! b [28] $end
$var wire 1 0! b [27] $end
$var wire 1 1! b [26] $end
$var wire 1 2! b [25] $end
$var wire 1 3! b [24] $end
$var wire 1 4! b [23] $end
$var wire 1 5! b [22] $end
$var wire 1 6! b [21] $end
$var wire 1 7! b [20] $end
$var wire 1 8! b [19] $end
$var wire 1 9! b [18] $end
$var wire 1 :! b [17] $end
$var wire 1 ;! b [16] $end
$var wire 1 <! b [15] $end
$var wire 1 =! b [14] $end
$var wire 1 >! b [13] $end
$var wire 1 ?! b [12] $end
$var wire 1 @! b [11] $end
$var wire 1 A! b [10] $end
$var wire 1 B! b [9] $end
$var wire 1 C! b [8] $end
$var wire 1 D! b [7] $end
$var wire 1 E! b [6] $end
$var wire 1 F! b [5] $end
$var wire 1 G! b [4] $end
$var wire 1 H! b [3] $end
$var wire 1 I! b [2] $end
$var wire 1 J! b [1] $end
$var wire 1 K! b [0] $end
$var wire 1 +! s $end
$var wire 1 n! c [31] $end
$var wire 1 o! c [30] $end
$var wire 1 p! c [29] $end
$var wire 1 q! c [28] $end
$var wire 1 r! c [27] $end
$var wire 1 s! c [26] $end
$var wire 1 t! c [25] $end
$var wire 1 u! c [24] $end
$var wire 1 v! c [23] $end
$var wire 1 w! c [22] $end
$var wire 1 x! c [21] $end
$var wire 1 y! c [20] $end
$var wire 1 z! c [19] $end
$var wire 1 {! c [18] $end
$var wire 1 |! c [17] $end
$var wire 1 }! c [16] $end
$var wire 1 ~! c [15] $end
$var wire 1 !" c [14] $end
$var wire 1 "" c [13] $end
$var wire 1 #" c [12] $end
$var wire 1 $" c [11] $end
$var wire 1 %" c [10] $end
$var wire 1 &" c [9] $end
$var wire 1 '" c [8] $end
$var wire 1 (" c [7] $end
$var wire 1 )" c [6] $end
$var wire 1 *" c [5] $end
$var wire 1 +" c [4] $end
$var wire 1 ," c [3] $end
$var wire 1 -" c [2] $end
$var wire 1 ." c [1] $end
$var wire 1 /" c [0] $end
$upscope $end

$scope module Program_Counter $end
$var wire 1 )! clk $end
$var wire 1 *! rst $end
$var wire 1 L! PCWrite $end
$var wire 1 n! PC_Next [31] $end
$var wire 1 o! PC_Next [30] $end
$var wire 1 p! PC_Next [29] $end
$var wire 1 q! PC_Next [28] $end
$var wire 1 r! PC_Next [27] $end
$var wire 1 s! PC_Next [26] $end
$var wire 1 t! PC_Next [25] $end
$var wire 1 u! PC_Next [24] $end
$var wire 1 v! PC_Next [23] $end
$var wire 1 w! PC_Next [22] $end
$var wire 1 x! PC_Next [21] $end
$var wire 1 y! PC_Next [20] $end
$var wire 1 z! PC_Next [19] $end
$var wire 1 {! PC_Next [18] $end
$var wire 1 |! PC_Next [17] $end
$var wire 1 }! PC_Next [16] $end
$var wire 1 ~! PC_Next [15] $end
$var wire 1 !" PC_Next [14] $end
$var wire 1 "" PC_Next [13] $end
$var wire 1 #" PC_Next [12] $end
$var wire 1 $" PC_Next [11] $end
$var wire 1 %" PC_Next [10] $end
$var wire 1 &" PC_Next [9] $end
$var wire 1 '" PC_Next [8] $end
$var wire 1 (" PC_Next [7] $end
$var wire 1 )" PC_Next [6] $end
$var wire 1 *" PC_Next [5] $end
$var wire 1 +" PC_Next [4] $end
$var wire 1 ," PC_Next [3] $end
$var wire 1 -" PC_Next [2] $end
$var wire 1 ." PC_Next [1] $end
$var wire 1 /" PC_Next [0] $end
$var reg 32 s" PC [31:0] $end
$upscope $end

$scope module IMEM $end
$var wire 1 *! rst $end
$var wire 1 N! A [31] $end
$var wire 1 O! A [30] $end
$var wire 1 P! A [29] $end
$var wire 1 Q! A [28] $end
$var wire 1 R! A [27] $end
$var wire 1 S! A [26] $end
$var wire 1 T! A [25] $end
$var wire 1 U! A [24] $end
$var wire 1 V! A [23] $end
$var wire 1 W! A [22] $end
$var wire 1 X! A [21] $end
$var wire 1 Y! A [20] $end
$var wire 1 Z! A [19] $end
$var wire 1 [! A [18] $end
$var wire 1 \! A [17] $end
$var wire 1 ]! A [16] $end
$var wire 1 ^! A [15] $end
$var wire 1 _! A [14] $end
$var wire 1 `! A [13] $end
$var wire 1 a! A [12] $end
$var wire 1 b! A [11] $end
$var wire 1 c! A [10] $end
$var wire 1 d! A [9] $end
$var wire 1 e! A [8] $end
$var wire 1 f! A [7] $end
$var wire 1 g! A [6] $end
$var wire 1 h! A [5] $end
$var wire 1 i! A [4] $end
$var wire 1 j! A [3] $end
$var wire 1 k! A [2] $end
$var wire 1 l! A [1] $end
$var wire 1 m! A [0] $end
$var wire 1 P" RD [31] $end
$var wire 1 Q" RD [30] $end
$var wire 1 R" RD [29] $end
$var wire 1 S" RD [28] $end
$var wire 1 T" RD [27] $end
$var wire 1 U" RD [26] $end
$var wire 1 V" RD [25] $end
$var wire 1 W" RD [24] $end
$var wire 1 X" RD [23] $end
$var wire 1 Y" RD [22] $end
$var wire 1 Z" RD [21] $end
$var wire 1 [" RD [20] $end
$var wire 1 \" RD [19] $end
$var wire 1 ]" RD [18] $end
$var wire 1 ^" RD [17] $end
$var wire 1 _" RD [16] $end
$var wire 1 `" RD [15] $end
$var wire 1 a" RD [14] $end
$var wire 1 b" RD [13] $end
$var wire 1 c" RD [12] $end
$var wire 1 d" RD [11] $end
$var wire 1 e" RD [10] $end
$var wire 1 f" RD [9] $end
$var wire 1 g" RD [8] $end
$var wire 1 h" RD [7] $end
$var wire 1 i" RD [6] $end
$var wire 1 j" RD [5] $end
$var wire 1 k" RD [4] $end
$var wire 1 l" RD [3] $end
$var wire 1 m" RD [2] $end
$var wire 1 n" RD [1] $end
$var wire 1 o" RD [0] $end
$upscope $end

$scope module PC_adder $end
$var wire 1 N! a [31] $end
$var wire 1 O! a [30] $end
$var wire 1 P! a [29] $end
$var wire 1 Q! a [28] $end
$var wire 1 R! a [27] $end
$var wire 1 S! a [26] $end
$var wire 1 T! a [25] $end
$var wire 1 U! a [24] $end
$var wire 1 V! a [23] $end
$var wire 1 W! a [22] $end
$var wire 1 X! a [21] $end
$var wire 1 Y! a [20] $end
$var wire 1 Z! a [19] $end
$var wire 1 [! a [18] $end
$var wire 1 \! a [17] $end
$var wire 1 ]! a [16] $end
$var wire 1 ^! a [15] $end
$var wire 1 _! a [14] $end
$var wire 1 `! a [13] $end
$var wire 1 a! a [12] $end
$var wire 1 b! a [11] $end
$var wire 1 c! a [10] $end
$var wire 1 d! a [9] $end
$var wire 1 e! a [8] $end
$var wire 1 f! a [7] $end
$var wire 1 g! a [6] $end
$var wire 1 h! a [5] $end
$var wire 1 i! a [4] $end
$var wire 1 j! a [3] $end
$var wire 1 k! a [2] $end
$var wire 1 l! a [1] $end
$var wire 1 m! a [0] $end
$var wire 1 t" b [31] $end
$var wire 1 u" b [30] $end
$var wire 1 v" b [29] $end
$var wire 1 w" b [28] $end
$var wire 1 x" b [27] $end
$var wire 1 y" b [26] $end
$var wire 1 z" b [25] $end
$var wire 1 {" b [24] $end
$var wire 1 |" b [23] $end
$var wire 1 }" b [22] $end
$var wire 1 ~" b [21] $end
$var wire 1 !# b [20] $end
$var wire 1 "# b [19] $end
$var wire 1 ## b [18] $end
$var wire 1 $# b [17] $end
$var wire 1 %# b [16] $end
$var wire 1 &# b [15] $end
$var wire 1 '# b [14] $end
$var wire 1 (# b [13] $end
$var wire 1 )# b [12] $end
$var wire 1 *# b [11] $end
$var wire 1 +# b [10] $end
$var wire 1 ,# b [9] $end
$var wire 1 -# b [8] $end
$var wire 1 .# b [7] $end
$var wire 1 /# b [6] $end
$var wire 1 0# b [5] $end
$var wire 1 1# b [4] $end
$var wire 1 2# b [3] $end
$var wire 1 3# b [2] $end
$var wire 1 4# b [1] $end
$var wire 1 5# b [0] $end
$var wire 1 0" c [31] $end
$var wire 1 1" c [30] $end
$var wire 1 2" c [29] $end
$var wire 1 3" c [28] $end
$var wire 1 4" c [27] $end
$var wire 1 5" c [26] $end
$var wire 1 6" c [25] $end
$var wire 1 7" c [24] $end
$var wire 1 8" c [23] $end
$var wire 1 9" c [22] $end
$var wire 1 :" c [21] $end
$var wire 1 ;" c [20] $end
$var wire 1 <" c [19] $end
$var wire 1 =" c [18] $end
$var wire 1 >" c [17] $end
$var wire 1 ?" c [16] $end
$var wire 1 @" c [15] $end
$var wire 1 A" c [14] $end
$var wire 1 B" c [13] $end
$var wire 1 C" c [12] $end
$var wire 1 D" c [11] $end
$var wire 1 E" c [10] $end
$var wire 1 F" c [9] $end
$var wire 1 G" c [8] $end
$var wire 1 H" c [7] $end
$var wire 1 I" c [6] $end
$var wire 1 J" c [5] $end
$var wire 1 K" c [4] $end
$var wire 1 L" c [3] $end
$var wire 1 M" c [2] $end
$var wire 1 N" c [1] $end
$var wire 1 O" c [0] $end
$upscope $end
$upscope $end
$upscope $end
$enddefinitions $end
#0
$dumpvars
0!
0"
0#
b0 $
1%
1&
b0 p"
b0 q"
b0 r"
bx s"
0F
0E
0D
0C
0B
0A
0@
0?
0>
0=
0<
0;
0:
09
08
07
06
05
04
03
02
01
00
0/
0.
0-
0,
0+
0*
0)
0(
0'
0f
0e
0d
0c
0b
0a
0`
0_
0^
0]
0\
0[
0Z
0Y
0X
0W
0V
0U
0T
0S
0R
0Q
0P
0O
0N
0M
0L
0K
0J
0I
0H
0G
0(!
0'!
0&!
0%!
0$!
0#!
0"!
0!!
0~
0}
0|
0{
0z
0y
0x
0w
0v
0u
0t
0s
0r
0q
0p
0o
0n
0m
0l
0k
0j
0i
0h
0g
xm!
xl!
xk!
xj!
xi!
xh!
xg!
xf!
xe!
xd!
xc!
xb!
xa!
x`!
x_!
x^!
x]!
x\!
x[!
xZ!
xY!
xX!
xW!
xV!
xU!
xT!
xS!
xR!
xQ!
xP!
xO!
xN!
x/"
x."
x-"
x,"
x+"
x*"
x)"
x("
x'"
x&"
x%"
x$"
x#"
x""
x!"
x~!
x}!
x|!
x{!
xz!
xy!
xx!
xw!
xv!
xu!
xt!
xs!
xr!
xq!
xp!
xo!
xn!
xO"
xN"
xM"
xL"
xK"
xJ"
xI"
xH"
xG"
xF"
xE"
xD"
xC"
xB"
xA"
x@"
x?"
x>"
x="
x<"
x;"
x:"
x9"
x8"
x7"
x6"
x5"
x4"
x3"
x2"
x1"
x0"
0o"
0n"
0m"
0l"
0k"
0j"
0i"
0h"
0g"
0f"
0e"
0d"
0c"
0b"
0a"
0`"
0_"
0^"
0]"
0\"
0["
0Z"
0Y"
0X"
0W"
0V"
0U"
0T"
0S"
0R"
0Q"
0P"
1M!
1L!
0K!
0J!
0I!
0H!
0G!
0F!
0E!
0D!
0C!
0B!
0A!
0@!
0?!
0>!
0=!
0<!
0;!
0:!
09!
08!
07!
06!
05!
04!
03!
02!
01!
00!
0/!
0.!
0-!
0,!
0+!
0*!
0)!
05#
04#
13#
02#
01#
00#
0/#
0.#
0-#
0,#
0+#
0*#
0)#
0(#
0'#
0&#
0%#
0$#
0##
0"#
0!#
0~"
0}"
0|"
0{"
0z"
0y"
0x"
0w"
0v"
0u"
0t"
$end
#50
1!
1)!
b0 s"
0m!
0l!
0k!
0j!
0i!
0h!
0g!
0f!
0e!
0d!
0c!
0b!
0a!
0`!
0_!
0^!
0]!
0\!
0[!
0Z!
0Y!
0X!
0W!
0V!
0U!
0T!
0S!
0R!
0Q!
0P!
0O!
0N!
0O"
0N"
1M"
0L"
0K"
0J"
0I"
0H"
0G"
0F"
0E"
0D"
0C"
0B"
0A"
0@"
0?"
0>"
0="
0<"
0;"
0:"
09"
08"
07"
06"
05"
04"
03"
02"
01"
00"
0/"
0."
1-"
0,"
0+"
0*"
0)"
0("
0'"
0&"
0%"
0$"
0#"
0""
0!"
0~!
0}!
0|!
0{!
0z!
0y!
0x!
0w!
0v!
0u!
0t!
0s!
0r!
0q!
0p!
0o!
0n!
#100
0!
0)!
#150
1!
1)!
#200
1"
0!
1*!
0)!
1o"
1n"
1k"
1h"
1Z"
1X"
#250
1!
1)!
b100 s"
b101000000000000010010011 p"
b100 r"
1&!
1F
1E
1B
1?
11
1/
1k!
0h"
1g"
0Z"
1Y"
0X"
1W"
0M"
1L"
0-"
1,"
#300
0!
0)!
#350
1!
1)!
b1010000000000000100010011 p"
b100 q"
b1000 r"
b1000 s"
0k!
1j!
0&!
1%!
1d
0?
1>
01
10
0/
1.
1j"
1h"
1`"
1Z"
0Y"
0W"
1M"
1-"
#400
0!
0)!
#450
1!
1)!
b1100 s"
b1000001000000110110011 p"
b1000 q"
b1100 r"
1&!
0d
1c
1A
1?
17
11
00
0.
1k!
0h"
0g"
1f"
1_"
1["
0Z"
1Q"
0M"
0L"
1K"
0-"
0,"
1+"
#500
1#
b100000 $
0!
1+!
1F!
0+"
1*"
0)!
#550
1!
1)!
b1000000000100011000001000110011 p"
b1100 q"
b10000 r"
b100000 s"
0k!
0j!
1h!
0&!
0%!
1$!
1d
0?
0>
1=
16
12
01
1(
0j"
1h"
1g"
0`"
0_"
1Z"
1Y"
0Q"
1M"
0K"
1J"
#600
0"
0!
0*!
0)!
0o"
0n"
0k"
0h"
0g"
0f"
0["
0Z"
0Y"
b0 p"
b0 q"
b0 r"
0$!
0d
0c
0F
0E
0B
0A
0=
07
06
02
0(
#650
1!
1)!
b0 s"
0h!
0J"
#700
1"
0#
0!
0+!
1-"
0*"
1*!
0)!
1o"
1n"
1k"
1h"
1Z"
1X"
#750
1!
1)!
b101000000000000010010011 p"
b100 r"
b100 s"
1k!
1&!
1F
1E
1B
1?
11
1/
0h"
1g"
0Z"
1Y"
0X"
1W"
0M"
1L"
0-"
1,"
#800
0!
0)!
#850
1!
1)!
b1000 s"
b1010000000000000100010011 p"
b100 q"
b1000 r"
0&!
1%!
1d
0?
1>
01
10
0/
1.
0k!
1j!
1j"
1h"
1`"
1Z"
0Y"
0W"
1M"
1-"
#900
0%
0!
0L!
0)!
#950
1!
1)!
b1000001000000110110011 p"
b1000 q"
b1100 r"
1&!
0d
1c
1A
1?
17
11
00
0.
#1000
1%
0&
0!
1L!
0M!
0)!
#1050
1!
1)!
b1100 s"
1k!
0h"
0g"
1f"
1_"
1["
0Z"
1Q"
0M"
0L"
1K"
0-"
0,"
1+"
#1100
1&
1#
b1000000 $
0!
1M!
1+!
0F!
1E!
0+"
1)"
0)!
