fetch_stage_tb.vcd
$date
	Fri Apr 18 07:03:58 2025
$end
$version
	ModelSim Version 2020.4
$end
$timescale
	1ns
$end

$scope module Fetch_Stage_tb $end
$var reg 1 ! clk $end
$var reg 1 " rst $end
$var reg 1 # PCSrcE $end
$var reg 32 $ PCTargetE [31:0] $end
$var wire 1 % InstrD [31] $end
$var wire 1 & InstrD [30] $end
$var wire 1 ' InstrD [29] $end
$var wire 1 ( InstrD [28] $end
$var wire 1 ) InstrD [27] $end
$var wire 1 * InstrD [26] $end
$var wire 1 + InstrD [25] $end
$var wire 1 , InstrD [24] $end
$var wire 1 - InstrD [23] $end
$var wire 1 . InstrD [22] $end
$var wire 1 / InstrD [21] $end
$var wire 1 0 InstrD [20] $end
$var wire 1 1 InstrD [19] $end
$var wire 1 2 InstrD [18] $end
$var wire 1 3 InstrD [17] $end
$var wire 1 4 InstrD [16] $end
$var wire 1 5 InstrD [15] $end
$var wire 1 6 InstrD [14] $end
$var wire 1 7 InstrD [13] $end
$var wire 1 8 InstrD [12] $end
$var wire 1 9 InstrD [11] $end
$var wire 1 : InstrD [10] $end
$var wire 1 ; InstrD [9] $end
$var wire 1 < InstrD [8] $end
$var wire 1 = InstrD [7] $end
$var wire 1 > InstrD [6] $end
$var wire 1 ? InstrD [5] $end
$var wire 1 @ InstrD [4] $end
$var wire 1 A InstrD [3] $end
$var wire 1 B InstrD [2] $end
$var wire 1 C InstrD [1] $end
$var wire 1 D InstrD [0] $end
$var wire 1 E PCD [31] $end
$var wire 1 F PCD [30] $end
$var wire 1 G PCD [29] $end
$var wire 1 H PCD [28] $end
$var wire 1 I PCD [27] $end
$var wire 1 J PCD [26] $end
$var wire 1 K PCD [25] $end
$var wire 1 L PCD [24] $end
$var wire 1 M PCD [23] $end
$var wire 1 N PCD [22] $end
$var wire 1 O PCD [21] $end
$var wire 1 P PCD [20] $end
$var wire 1 Q PCD [19] $end
$var wire 1 R PCD [18] $end
$var wire 1 S PCD [17] $end
$var wire 1 T PCD [16] $end
$var wire 1 U PCD [15] $end
$var wire 1 V PCD [14] $end
$var wire 1 W PCD [13] $end
$var wire 1 X PCD [12] $end
$var wire 1 Y PCD [11] $end
$var wire 1 Z PCD [10] $end
$var wire 1 [ PCD [9] $end
$var wire 1 \ PCD [8] $end
$var wire 1 ] PCD [7] $end
$var wire 1 ^ PCD [6] $end
$var wire 1 _ PCD [5] $end
$var wire 1 ` PCD [4] $end
$var wire 1 a PCD [3] $end
$var wire 1 b PCD [2] $end
$var wire 1 c PCD [1] $end
$var wire 1 d PCD [0] $end

$scope module DUT $end
$var wire 1 e clk $end
$var wire 1 f rst $end
$var wire 1 g PCSrcE $end
$var wire 1 h PCTargetE [31] $end
$var wire 1 i PCTargetE [30] $end
$var wire 1 j PCTargetE [29] $end
$var wire 1 k PCTargetE [28] $end
$var wire 1 l PCTargetE [27] $end
$var wire 1 m PCTargetE [26] $end
$var wire 1 n PCTargetE [25] $end
$var wire 1 o PCTargetE [24] $end
$var wire 1 p PCTargetE [23] $end
$var wire 1 q PCTargetE [22] $end
$var wire 1 r PCTargetE [21] $end
$var wire 1 s PCTargetE [20] $end
$var wire 1 t PCTargetE [19] $end
$var wire 1 u PCTargetE [18] $end
$var wire 1 v PCTargetE [17] $end
$var wire 1 w PCTargetE [16] $end
$var wire 1 x PCTargetE [15] $end
$var wire 1 y PCTargetE [14] $end
$var wire 1 z PCTargetE [13] $end
$var wire 1 { PCTargetE [12] $end
$var wire 1 | PCTargetE [11] $end
$var wire 1 } PCTargetE [10] $end
$var wire 1 ~ PCTargetE [9] $end
$var wire 1 !! PCTargetE [8] $end
$var wire 1 "! PCTargetE [7] $end
$var wire 1 #! PCTargetE [6] $end
$var wire 1 $! PCTargetE [5] $end
$var wire 1 %! PCTargetE [4] $end
$var wire 1 &! PCTargetE [3] $end
$var wire 1 '! PCTargetE [2] $end
$var wire 1 (! PCTargetE [1] $end
$var wire 1 )! PCTargetE [0] $end
$var wire 1 % InstrD [31] $end
$var wire 1 & InstrD [30] $end
$var wire 1 ' InstrD [29] $end
$var wire 1 ( InstrD [28] $end
$var wire 1 ) InstrD [27] $end
$var wire 1 * InstrD [26] $end
$var wire 1 + InstrD [25] $end
$var wire 1 , InstrD [24] $end
$var wire 1 - InstrD [23] $end
$var wire 1 . InstrD [22] $end
$var wire 1 / InstrD [21] $end
$var wire 1 0 InstrD [20] $end
$var wire 1 1 InstrD [19] $end
$var wire 1 2 InstrD [18] $end
$var wire 1 3 InstrD [17] $end
$var wire 1 4 InstrD [16] $end
$var wire 1 5 InstrD [15] $end
$var wire 1 6 InstrD [14] $end
$var wire 1 7 InstrD [13] $end
$var wire 1 8 InstrD [12] $end
$var wire 1 9 InstrD [11] $end
$var wire 1 : InstrD [10] $end
$var wire 1 ; InstrD [9] $end
$var wire 1 < InstrD [8] $end
$var wire 1 = InstrD [7] $end
$var wire 1 > InstrD [6] $end
$var wire 1 ? InstrD [5] $end
$var wire 1 @ InstrD [4] $end
$var wire 1 A InstrD [3] $end
$var wire 1 B InstrD [2] $end
$var wire 1 C InstrD [1] $end
$var wire 1 D InstrD [0] $end
$var wire 1 E PCD [31] $end
$var wire 1 F PCD [30] $end
$var wire 1 G PCD [29] $end
$var wire 1 H PCD [28] $end
$var wire 1 I PCD [27] $end
$var wire 1 J PCD [26] $end
$var wire 1 K PCD [25] $end
$var wire 1 L PCD [24] $end
$var wire 1 M PCD [23] $end
$var wire 1 N PCD [22] $end
$var wire 1 O PCD [21] $end
$var wire 1 P PCD [20] $end
$var wire 1 Q PCD [19] $end
$var wire 1 R PCD [18] $end
$var wire 1 S PCD [17] $end
$var wire 1 T PCD [16] $end
$var wire 1 U PCD [15] $end
$var wire 1 V PCD [14] $end
$var wire 1 W PCD [13] $end
$var wire 1 X PCD [12] $end
$var wire 1 Y PCD [11] $end
$var wire 1 Z PCD [10] $end
$var wire 1 [ PCD [9] $end
$var wire 1 \ PCD [8] $end
$var wire 1 ] PCD [7] $end
$var wire 1 ^ PCD [6] $end
$var wire 1 _ PCD [5] $end
$var wire 1 ` PCD [4] $end
$var wire 1 a PCD [3] $end
$var wire 1 b PCD [2] $end
$var wire 1 c PCD [1] $end
$var wire 1 d PCD [0] $end
$var wire 1 *! PCPlus4D [31] $end
$var wire 1 +! PCPlus4D [30] $end
$var wire 1 ,! PCPlus4D [29] $end
$var wire 1 -! PCPlus4D [28] $end
$var wire 1 .! PCPlus4D [27] $end
$var wire 1 /! PCPlus4D [26] $end
$var wire 1 0! PCPlus4D [25] $end
$var wire 1 1! PCPlus4D [24] $end
$var wire 1 2! PCPlus4D [23] $end
$var wire 1 3! PCPlus4D [22] $end
$var wire 1 4! PCPlus4D [21] $end
$var wire 1 5! PCPlus4D [20] $end
$var wire 1 6! PCPlus4D [19] $end
$var wire 1 7! PCPlus4D [18] $end
$var wire 1 8! PCPlus4D [17] $end
$var wire 1 9! PCPlus4D [16] $end
$var wire 1 :! PCPlus4D [15] $end
$var wire 1 ;! PCPlus4D [14] $end
$var wire 1 <! PCPlus4D [13] $end
$var wire 1 =! PCPlus4D [12] $end
$var wire 1 >! PCPlus4D [11] $end
$var wire 1 ?! PCPlus4D [10] $end
$var wire 1 @! PCPlus4D [9] $end
$var wire 1 A! PCPlus4D [8] $end
$var wire 1 B! PCPlus4D [7] $end
$var wire 1 C! PCPlus4D [6] $end
$var wire 1 D! PCPlus4D [5] $end
$var wire 1 E! PCPlus4D [4] $end
$var wire 1 F! PCPlus4D [3] $end
$var wire 1 G! PCPlus4D [2] $end
$var wire 1 H! PCPlus4D [1] $end
$var wire 1 I! PCPlus4D [0] $end
$var wire 1 J! PC_F [31] $end
$var wire 1 K! PC_F [30] $end
$var wire 1 L! PC_F [29] $end
$var wire 1 M! PC_F [28] $end
$var wire 1 N! PC_F [27] $end
$var wire 1 O! PC_F [26] $end
$var wire 1 P! PC_F [25] $end
$var wire 1 Q! PC_F [24] $end
$var wire 1 R! PC_F [23] $end
$var wire 1 S! PC_F [22] $end
$var wire 1 T! PC_F [21] $end
$var wire 1 U! PC_F [20] $end
$var wire 1 V! PC_F [19] $end
$var wire 1 W! PC_F [18] $end
$var wire 1 X! PC_F [17] $end
$var wire 1 Y! PC_F [16] $end
$var wire 1 Z! PC_F [15] $end
$var wire 1 [! PC_F [14] $end
$var wire 1 \! PC_F [13] $end
$var wire 1 ]! PC_F [12] $end
$var wire 1 ^! PC_F [11] $end
$var wire 1 _! PC_F [10] $end
$var wire 1 `! PC_F [9] $end
$var wire 1 a! PC_F [8] $end
$var wire 1 b! PC_F [7] $end
$var wire 1 c! PC_F [6] $end
$var wire 1 d! PC_F [5] $end
$var wire 1 e! PC_F [4] $end
$var wire 1 f! PC_F [3] $end
$var wire 1 g! PC_F [2] $end
$var wire 1 h! PC_F [1] $end
$var wire 1 i! PC_F [0] $end
$var wire 1 j! PCF [31] $end
$var wire 1 k! PCF [30] $end
$var wire 1 l! PCF [29] $end
$var wire 1 m! PCF [28] $end
$var wire 1 n! PCF [27] $end
$var wire 1 o! PCF [26] $end
$var wire 1 p! PCF [25] $end
$var wire 1 q! PCF [24] $end
$var wire 1 r! PCF [23] $end
$var wire 1 s! PCF [22] $end
$var wire 1 t! PCF [21] $end
$var wire 1 u! PCF [20] $end
$var wire 1 v! PCF [19] $end
$var wire 1 w! PCF [18] $end
$var wire 1 x! PCF [17] $end
$var wire 1 y! PCF [16] $end
$var wire 1 z! PCF [15] $end
$var wire 1 {! PCF [14] $end
$var wire 1 |! PCF [13] $end
$var wire 1 }! PCF [12] $end
$var wire 1 ~! PCF [11] $end
$var wire 1 !" PCF [10] $end
$var wire 1 "" PCF [9] $end
$var wire 1 #" PCF [8] $end
$var wire 1 $" PCF [7] $end
$var wire 1 %" PCF [6] $end
$var wire 1 &" PCF [5] $end
$var wire 1 '" PCF [4] $end
$var wire 1 (" PCF [3] $end
$var wire 1 )" PCF [2] $end
$var wire 1 *" PCF [1] $end
$var wire 1 +" PCF [0] $end
$var wire 1 ," PCPlus4F [31] $end
$var wire 1 -" PCPlus4F [30] $end
$var wire 1 ." PCPlus4F [29] $end
$var wire 1 /" PCPlus4F [28] $end
$var wire 1 0" PCPlus4F [27] $end
$var wire 1 1" PCPlus4F [26] $end
$var wire 1 2" PCPlus4F [25] $end
$var wire 1 3" PCPlus4F [24] $end
$var wire 1 4" PCPlus4F [23] $end
$var wire 1 5" PCPlus4F [22] $end
$var wire 1 6" PCPlus4F [21] $end
$var wire 1 7" PCPlus4F [20] $end
$var wire 1 8" PCPlus4F [19] $end
$var wire 1 9" PCPlus4F [18] $end
$var wire 1 :" PCPlus4F [17] $end
$var wire 1 ;" PCPlus4F [16] $end
$var wire 1 <" PCPlus4F [15] $end
$var wire 1 =" PCPlus4F [14] $end
$var wire 1 >" PCPlus4F [13] $end
$var wire 1 ?" PCPlus4F [12] $end
$var wire 1 @" PCPlus4F [11] $end
$var wire 1 A" PCPlus4F [10] $end
$var wire 1 B" PCPlus4F [9] $end
$var wire 1 C" PCPlus4F [8] $end
$var wire 1 D" PCPlus4F [7] $end
$var wire 1 E" PCPlus4F [6] $end
$var wire 1 F" PCPlus4F [5] $end
$var wire 1 G" PCPlus4F [4] $end
$var wire 1 H" PCPlus4F [3] $end
$var wire 1 I" PCPlus4F [2] $end
$var wire 1 J" PCPlus4F [1] $end
$var wire 1 K" PCPlus4F [0] $end
$var wire 1 L" InstrF [31] $end
$var wire 1 M" InstrF [30] $end
$var wire 1 N" InstrF [29] $end
$var wire 1 O" InstrF [28] $end
$var wire 1 P" InstrF [27] $end
$var wire 1 Q" InstrF [26] $end
$var wire 1 R" InstrF [25] $end
$var wire 1 S" InstrF [24] $end
$var wire 1 T" InstrF [23] $end
$var wire 1 U" InstrF [22] $end
$var wire 1 V" InstrF [21] $end
$var wire 1 W" InstrF [20] $end
$var wire 1 X" InstrF [19] $end
$var wire 1 Y" InstrF [18] $end
$var wire 1 Z" InstrF [17] $end
$var wire 1 [" InstrF [16] $end
$var wire 1 \" InstrF [15] $end
$var wire 1 ]" InstrF [14] $end
$var wire 1 ^" InstrF [13] $end
$var wire 1 _" InstrF [12] $end
$var wire 1 `" InstrF [11] $end
$var wire 1 a" InstrF [10] $end
$var wire 1 b" InstrF [9] $end
$var wire 1 c" InstrF [8] $end
$var wire 1 d" InstrF [7] $end
$var wire 1 e" InstrF [6] $end
$var wire 1 f" InstrF [5] $end
$var wire 1 g" InstrF [4] $end
$var wire 1 h" InstrF [3] $end
$var wire 1 i" InstrF [2] $end
$var wire 1 j" InstrF [1] $end
$var wire 1 k" InstrF [0] $end
$var reg 32 l" InstrF_reg [31:0] $end
$var reg 32 m" PCF_reg [31:0] $end
$var reg 32 n" PCPlus4F_reg [31:0] $end

$scope module PC_MUX $end
$var wire 1 ," a [31] $end
$var wire 1 -" a [30] $end
$var wire 1 ." a [29] $end
$var wire 1 /" a [28] $end
$var wire 1 0" a [27] $end
$var wire 1 1" a [26] $end
$var wire 1 2" a [25] $end
$var wire 1 3" a [24] $end
$var wire 1 4" a [23] $end
$var wire 1 5" a [22] $end
$var wire 1 6" a [21] $end
$var wire 1 7" a [20] $end
$var wire 1 8" a [19] $end
$var wire 1 9" a [18] $end
$var wire 1 :" a [17] $end
$var wire 1 ;" a [16] $end
$var wire 1 <" a [15] $end
$var wire 1 =" a [14] $end
$var wire 1 >" a [13] $end
$var wire 1 ?" a [12] $end
$var wire 1 @" a [11] $end
$var wire 1 A" a [10] $end
$var wire 1 B" a [9] $end
$var wire 1 C" a [8] $end
$var wire 1 D" a [7] $end
$var wire 1 E" a [6] $end
$var wire 1 F" a [5] $end
$var wire 1 G" a [4] $end
$var wire 1 H" a [3] $end
$var wire 1 I" a [2] $end
$var wire 1 J" a [1] $end
$var wire 1 K" a [0] $end
$var wire 1 h b [31] $end
$var wire 1 i b [30] $end
$var wire 1 j b [29] $end
$var wire 1 k b [28] $end
$var wire 1 l b [27] $end
$var wire 1 m b [26] $end
$var wire 1 n b [25] $end
$var wire 1 o b [24] $end
$var wire 1 p b [23] $end
$var wire 1 q b [22] $end
$var wire 1 r b [21] $end
$var wire 1 s b [20] $end
$var wire 1 t b [19] $end
$var wire 1 u b [18] $end
$var wire 1 v b [17] $end
$var wire 1 w b [16] $end
$var wire 1 x b [15] $end
$var wire 1 y b [14] $end
$var wire 1 z b [13] $end
$var wire 1 { b [12] $end
$var wire 1 | b [11] $end
$var wire 1 } b [10] $end
$var wire 1 ~ b [9] $end
$var wire 1 !! b [8] $end
$var wire 1 "! b [7] $end
$var wire 1 #! b [6] $end
$var wire 1 $! b [5] $end
$var wire 1 %! b [4] $end
$var wire 1 &! b [3] $end
$var wire 1 '! b [2] $end
$var wire 1 (! b [1] $end
$var wire 1 )! b [0] $end
$var wire 1 g s $end
$var wire 1 J! c [31] $end
$var wire 1 K! c [30] $end
$var wire 1 L! c [29] $end
$var wire 1 M! c [28] $end
$var wire 1 N! c [27] $end
$var wire 1 O! c [26] $end
$var wire 1 P! c [25] $end
$var wire 1 Q! c [24] $end
$var wire 1 R! c [23] $end
$var wire 1 S! c [22] $end
$var wire 1 T! c [21] $end
$var wire 1 U! c [20] $end
$var wire 1 V! c [19] $end
$var wire 1 W! c [18] $end
$var wire 1 X! c [17] $end
$var wire 1 Y! c [16] $end
$var wire 1 Z! c [15] $end
$var wire 1 [! c [14] $end
$var wire 1 \! c [13] $end
$var wire 1 ]! c [12] $end
$var wire 1 ^! c [11] $end
$var wire 1 _! c [10] $end
$var wire 1 `! c [9] $end
$var wire 1 a! c [8] $end
$var wire 1 b! c [7] $end
$var wire 1 c! c [6] $end
$var wire 1 d! c [5] $end
$var wire 1 e! c [4] $end
$var wire 1 f! c [3] $end
$var wire 1 g! c [2] $end
$var wire 1 h! c [1] $end
$var wire 1 i! c [0] $end
$upscope $end

$scope module Program_Counter $end
$var wire 1 e clk $end
$var wire 1 f rst $end
$var wire 1 J! PC_Next [31] $end
$var wire 1 K! PC_Next [30] $end
$var wire 1 L! PC_Next [29] $end
$var wire 1 M! PC_Next [28] $end
$var wire 1 N! PC_Next [27] $end
$var wire 1 O! PC_Next [26] $end
$var wire 1 P! PC_Next [25] $end
$var wire 1 Q! PC_Next [24] $end
$var wire 1 R! PC_Next [23] $end
$var wire 1 S! PC_Next [22] $end
$var wire 1 T! PC_Next [21] $end
$var wire 1 U! PC_Next [20] $end
$var wire 1 V! PC_Next [19] $end
$var wire 1 W! PC_Next [18] $end
$var wire 1 X! PC_Next [17] $end
$var wire 1 Y! PC_Next [16] $end
$var wire 1 Z! PC_Next [15] $end
$var wire 1 [! PC_Next [14] $end
$var wire 1 \! PC_Next [13] $end
$var wire 1 ]! PC_Next [12] $end
$var wire 1 ^! PC_Next [11] $end
$var wire 1 _! PC_Next [10] $end
$var wire 1 `! PC_Next [9] $end
$var wire 1 a! PC_Next [8] $end
$var wire 1 b! PC_Next [7] $end
$var wire 1 c! PC_Next [6] $end
$var wire 1 d! PC_Next [5] $end
$var wire 1 e! PC_Next [4] $end
$var wire 1 f! PC_Next [3] $end
$var wire 1 g! PC_Next [2] $end
$var wire 1 h! PC_Next [1] $end
$var wire 1 i! PC_Next [0] $end
$var reg 32 o" PC [31:0] $end
$upscope $end

$scope module IMEM $end
$var wire 1 f rst $end
$var wire 1 j! A [31] $end
$var wire 1 k! A [30] $end
$var wire 1 l! A [29] $end
$var wire 1 m! A [28] $end
$var wire 1 n! A [27] $end
$var wire 1 o! A [26] $end
$var wire 1 p! A [25] $end
$var wire 1 q! A [24] $end
$var wire 1 r! A [23] $end
$var wire 1 s! A [22] $end
$var wire 1 t! A [21] $end
$var wire 1 u! A [20] $end
$var wire 1 v! A [19] $end
$var wire 1 w! A [18] $end
$var wire 1 x! A [17] $end
$var wire 1 y! A [16] $end
$var wire 1 z! A [15] $end
$var wire 1 {! A [14] $end
$var wire 1 |! A [13] $end
$var wire 1 }! A [12] $end
$var wire 1 ~! A [11] $end
$var wire 1 !" A [10] $end
$var wire 1 "" A [9] $end
$var wire 1 #" A [8] $end
$var wire 1 $" A [7] $end
$var wire 1 %" A [6] $end
$var wire 1 &" A [5] $end
$var wire 1 '" A [4] $end
$var wire 1 (" A [3] $end
$var wire 1 )" A [2] $end
$var wire 1 *" A [1] $end
$var wire 1 +" A [0] $end
$var wire 1 L" RD [31] $end
$var wire 1 M" RD [30] $end
$var wire 1 N" RD [29] $end
$var wire 1 O" RD [28] $end
$var wire 1 P" RD [27] $end
$var wire 1 Q" RD [26] $end
$var wire 1 R" RD [25] $end
$var wire 1 S" RD [24] $end
$var wire 1 T" RD [23] $end
$var wire 1 U" RD [22] $end
$var wire 1 V" RD [21] $end
$var wire 1 W" RD [20] $end
$var wire 1 X" RD [19] $end
$var wire 1 Y" RD [18] $end
$var wire 1 Z" RD [17] $end
$var wire 1 [" RD [16] $end
$var wire 1 \" RD [15] $end
$var wire 1 ]" RD [14] $end
$var wire 1 ^" RD [13] $end
$var wire 1 _" RD [12] $end
$var wire 1 `" RD [11] $end
$var wire 1 a" RD [10] $end
$var wire 1 b" RD [9] $end
$var wire 1 c" RD [8] $end
$var wire 1 d" RD [7] $end
$var wire 1 e" RD [6] $end
$var wire 1 f" RD [5] $end
$var wire 1 g" RD [4] $end
$var wire 1 h" RD [3] $end
$var wire 1 i" RD [2] $end
$var wire 1 j" RD [1] $end
$var wire 1 k" RD [0] $end
$upscope $end

$scope module PC_adder $end
$var wire 1 j! a [31] $end
$var wire 1 k! a [30] $end
$var wire 1 l! a [29] $end
$var wire 1 m! a [28] $end
$var wire 1 n! a [27] $end
$var wire 1 o! a [26] $end
$var wire 1 p! a [25] $end
$var wire 1 q! a [24] $end
$var wire 1 r! a [23] $end
$var wire 1 s! a [22] $end
$var wire 1 t! a [21] $end
$var wire 1 u! a [20] $end
$var wire 1 v! a [19] $end
$var wire 1 w! a [18] $end
$var wire 1 x! a [17] $end
$var wire 1 y! a [16] $end
$var wire 1 z! a [15] $end
$var wire 1 {! a [14] $end
$var wire 1 |! a [13] $end
$var wire 1 }! a [12] $end
$var wire 1 ~! a [11] $end
$var wire 1 !" a [10] $end
$var wire 1 "" a [9] $end
$var wire 1 #" a [8] $end
$var wire 1 $" a [7] $end
$var wire 1 %" a [6] $end
$var wire 1 &" a [5] $end
$var wire 1 '" a [4] $end
$var wire 1 (" a [3] $end
$var wire 1 )" a [2] $end
$var wire 1 *" a [1] $end
$var wire 1 +" a [0] $end
$var wire 1 p" b [31] $end
$var wire 1 q" b [30] $end
$var wire 1 r" b [29] $end
$var wire 1 s" b [28] $end
$var wire 1 t" b [27] $end
$var wire 1 u" b [26] $end
$var wire 1 v" b [25] $end
$var wire 1 w" b [24] $end
$var wire 1 x" b [23] $end
$var wire 1 y" b [22] $end
$var wire 1 z" b [21] $end
$var wire 1 {" b [20] $end
$var wire 1 |" b [19] $end
$var wire 1 }" b [18] $end
$var wire 1 ~" b [17] $end
$var wire 1 !# b [16] $end
$var wire 1 "# b [15] $end
$var wire 1 ## b [14] $end
$var wire 1 $# b [13] $end
$var wire 1 %# b [12] $end
$var wire 1 &# b [11] $end
$var wire 1 '# b [10] $end
$var wire 1 (# b [9] $end
$var wire 1 )# b [8] $end
$var wire 1 *# b [7] $end
$var wire 1 +# b [6] $end
$var wire 1 ,# b [5] $end
$var wire 1 -# b [4] $end
$var wire 1 .# b [3] $end
$var wire 1 /# b [2] $end
$var wire 1 0# b [1] $end
$var wire 1 1# b [0] $end
$var wire 1 ," c [31] $end
$var wire 1 -" c [30] $end
$var wire 1 ." c [29] $end
$var wire 1 /" c [28] $end
$var wire 1 0" c [27] $end
$var wire 1 1" c [26] $end
$var wire 1 2" c [25] $end
$var wire 1 3" c [24] $end
$var wire 1 4" c [23] $end
$var wire 1 5" c [22] $end
$var wire 1 6" c [21] $end
$var wire 1 7" c [20] $end
$var wire 1 8" c [19] $end
$var wire 1 9" c [18] $end
$var wire 1 :" c [17] $end
$var wire 1 ;" c [16] $end
$var wire 1 <" c [15] $end
$var wire 1 =" c [14] $end
$var wire 1 >" c [13] $end
$var wire 1 ?" c [12] $end
$var wire 1 @" c [11] $end
$var wire 1 A" c [10] $end
$var wire 1 B" c [9] $end
$var wire 1 C" c [8] $end
$var wire 1 D" c [7] $end
$var wire 1 E" c [6] $end
$var wire 1 F" c [5] $end
$var wire 1 G" c [4] $end
$var wire 1 H" c [3] $end
$var wire 1 I" c [2] $end
$var wire 1 J" c [1] $end
$var wire 1 K" c [0] $end
$upscope $end
$upscope $end
$upscope $end
$enddefinitions $end
#0
$dumpvars
0!
0"
0#
b0 $
b0 l"
b0 m"
b0 n"
bx o"
0D
0C
0B
0A
0@
0?
0>
0=
0<
0;
0:
09
08
07
06
05
04
03
02
01
00
0/
0.
0-
0,
0+
0*
0)
0(
0'
0&
0%
0d
0c
0b
0a
0`
0_
0^
0]
0\
0[
0Z
0Y
0X
0W
0V
0U
0T
0S
0R
0Q
0P
0O
0N
0M
0L
0K
0J
0I
0H
0G
0F
0E
xi!
xh!
xg!
xf!
xe!
xd!
xc!
xb!
xa!
x`!
x_!
x^!
x]!
x\!
x[!
xZ!
xY!
xX!
xW!
xV!
xU!
xT!
xS!
xR!
xQ!
xP!
xO!
xN!
xM!
xL!
xK!
xJ!
x+"
x*"
x)"
x("
x'"
x&"
x%"
x$"
x#"
x""
x!"
x~!
x}!
x|!
x{!
xz!
xy!
xx!
xw!
xv!
xu!
xt!
xs!
xr!
xq!
xp!
xo!
xn!
xm!
xl!
xk!
xj!
xK"
xJ"
xI"
xH"
xG"
xF"
xE"
xD"
xC"
xB"
xA"
x@"
x?"
x>"
x="
x<"
x;"
x:"
x9"
x8"
x7"
x6"
x5"
x4"
x3"
x2"
x1"
x0"
x/"
x."
x-"
x,"
0k"
0j"
0i"
0h"
0g"
0f"
0e"
0d"
0c"
0b"
0a"
0`"
0_"
0^"
0]"
0\"
0["
0Z"
0Y"
0X"
0W"
0V"
0U"
0T"
0S"
0R"
0Q"
0P"
0O"
0N"
0M"
0L"
0)!
0(!
0'!
0&!
0%!
0$!
0#!
0"!
0!!
0~
0}
0|
0{
0z
0y
0x
0w
0v
0u
0t
0s
0r
0q
0p
0o
0n
0m
0l
0k
0j
0i
0h
0g
0f
0e
0I!
0H!
0G!
0F!
0E!
0D!
0C!
0B!
0A!
0@!
0?!
0>!
0=!
0<!
0;!
0:!
09!
08!
07!
06!
05!
04!
03!
02!
01!
00!
0/!
0.!
0-!
0,!
0+!
0*!
01#
00#
1/#
0.#
0-#
0,#
0+#
0*#
0)#
0(#
0'#
0&#
0%#
0$#
0##
0"#
0!#
0~"
0}"
0|"
0{"
0z"
0y"
0x"
0w"
0v"
0u"
0t"
0s"
0r"
0q"
0p"
$end
#50
1!
1e
b0 o"
0+"
0*"
0)"
0("
0'"
0&"
0%"
0$"
0#"
0""
0!"
0~!
0}!
0|!
0{!
0z!
0y!
0x!
0w!
0v!
0u!
0t!
0s!
0r!
0q!
0p!
0o!
0n!
0m!
0l!
0k!
0j!
0K"
0J"
1I"
0H"
0G"
0F"
0E"
0D"
0C"
0B"
0A"
0@"
0?"
0>"
0="
0<"
0;"
0:"
09"
08"
07"
06"
05"
04"
03"
02"
01"
00"
0/"
0."
0-"
0,"
0i!
0h!
1g!
0f!
0e!
0d!
0c!
0b!
0a!
0`!
0_!
0^!
0]!
0\!
0[!
0Z!
0Y!
0X!
0W!
0V!
0U!
0T!
0S!
0R!
0Q!
0P!
0O!
0N!
0M!
0L!
0K!
0J!
#100
0!
0e
#150
1!
1e
#200
1"
0!
1f
0e
1k"
1j"
1g"
1d"
1V"
1T"
#250
1!
1e
b100 o"
b101000000000000010010011 l"
b100 n"
1G!
1D
1C
1@
1=
1/
1-
1)"
0d"
1c"
0V"
1U"
0T"
1S"
0I"
1H"
0g!
1f!
#300
0!
0e
#350
1!
1e
b1010000000000000100010011 l"
b100 m"
b1000 n"
b1000 o"
0)"
1("
0G!
1F!
1b
0=
1<
0/
1.
0-
1,
1f"
1d"
1\"
1V"
0U"
0S"
1I"
1g!
#400
0!
0e
#450
1!
1e
b1100 o"
b1000001000000110110011 l"
b1000 m"
b1100 n"
1G!
0b
1a
1?
1=
15
1/
0.
0,
1)"
0d"
0c"
1b"
1["
1W"
0V"
1M"
0I"
0H"
1G"
0g!
0f!
1e!
#500
1#
b100000 $
0!
1g
1$!
0e!
1d!
0e
#550
1!
1e
b1000000000100011000001000110011 l"
b1100 m"
b10000 n"
b100000 o"
0)"
0("
1&"
0G!
0F!
1E!
1b
0=
0<
1;
14
10
0/
1&
0f"
1d"
1c"
0\"
0["
1V"
1U"
0M"
1I"
0G"
1F"
#600
0#
0!
0g
1g!
0e
#650
1!
1e
b100100 o"
b11100000000001110010011 l"
b100000 m"
b100100 n"
1G!
0E!
1D!
0b
0a
1_
0?
1=
1<
05
04
1/
1.
0&
1)"
xk"
xj"
xi"
xh"
xg"
xf"
xe"
xd"
xc"
xb"
xa"
x`"
x_"
x^"
x]"
x\"
x["
xZ"
xY"
xX"
xW"
xV"
xU"
xT"
xS"
xR"
xQ"
xP"
xO"
xN"
xM"
xL"
0I"
1H"
0g!
1f!
#700
0!
0e
#750
1!
1e
bx l"
b100100 m"
b101000 n"
b101000 o"
0)"
1("
0G!
1F!
1b
xD
xC
xB
xA
x@
x?
x>
x=
x<
x;
x:
x9
x8
x7
x6
x5
x4
x3
x2
x1
x0
x/
x.
x-
x,
x+
x*
x)
x(
x'
x&
x%
1I"
1g!
#800
0!
0e
#850
1!
1e
b101100 o"
b101000 m"
b101100 n"
1G!
0b
1a
1)"
0I"
0H"
1G"
0g!
0f!
1e!
#900
1#
b1000000 $
0!
1g
0$!
1#!
0e!
0d!
1c!
0e
#950
1!
1e
b101100 m"
b110000 n"
b1000000 o"
0)"
0("
0&"
1%"
0G!
0F!
1E!
1b
1I"
0G"
0F"
1E"
#1000
0#
0!
0g
1g!
0e
#1050
1!
1e
b1000100 o"
b1000000 m"
b1000100 n"
1G!
0E!
0D!
1C!
0b
0a
0_
1^
1)"
0I"
1H"
0g!
1f!
#1100
0!
0e
#1150
1!
1e
b1000100 m"
b1001000 n"
b1001000 o"
0)"
1("
0G!
1F!
1b
1I"
1g!
#1200
0"
0!
0f
0e
0k"
0j"
0i"
0h"
0g"
0f"
0e"
0d"
0c"
0b"
0a"
0`"
0_"
0^"
0]"
0\"
0["
0Z"
0Y"
0X"
0W"
0V"
0U"
0T"
0S"
0R"
0Q"
0P"
0O"
0N"
0M"
0L"
0D
0C
0B
0A
0@
0?
0>
0=
0<
0;
0:
09
08
07
06
05
04
03
02
01
00
0/
0.
0-
0,
0+
0*
0)
0(
0'
0&
0%
0b
0^
0F!
0C!
b0 l"
b0 m"
b0 n"
#1250
1!
1e
b0 o"
0("
0%"
0H"
0E"
0f!
0c!
#1300
1"
0!
1f
0e
1k"
1j"
1g"
1d"
1V"
1T"
#1350
1!
1e
b101000000000000010010011 l"
b100 n"
b100 o"
1)"
1G!
1D
1C
1@
1=
1/
1-
0d"
1c"
0V"
1U"
0T"
1S"
0I"
1H"
0g!
1f!
#1400
0!
0e
#1450
1!
1e
b1000 o"
b1010000000000000100010011 l"
b100 m"
b1000 n"
0G!
1F!
1b
0=
1<
0/
1.
0-
1,
0)"
1("
1f"
1d"
1\"
1V"
0U"
0S"
1I"
1g!
#1500
0!
0e
#1550
1!
1e
b1000001000000110110011 l"
b1000 m"
b1100 n"
b1100 o"
1)"
1G!
0b
1a
1?
1=
15
1/
0.
0,
0d"
0c"
1b"
1["
1W"
0V"
1M"
0I"
0H"
1G"
0g!
0f!
1e!
#1600
0!
0e
